{
  "project_info": {
    "project_number": "742418218398",
    "firebase_url": "https://android-fce07.firebaseio.com",
    "project_id": "android-fce07",
    "storage_bucket": "android-fce07.appspot.com"
  },
  "client": [
    {
      "client_info": {
        "mobilesdk_app_id": "1:742418218398:android:8e046770e6c0094f",
        "android_client_info": {
          "package_name": "com.company.luongchung.tkbtlu"
        }
      },
      "oauth_client": [
        {
          "client_id": "742418218398-moglgb7b3qtlbvk3npn8fcba6ococluo.apps.googleusercontent.com",
          "client_type": 3
        }
      ],
      "api_key": [
        {
          "current_key": "AIzaSyApPjj37aM6QdZFXgJWV6oJJTH1FGuTBr4"
        }
      ],
      "services": {
        "analytics_service": {
          "status": 1
        },
        "appinvite_service": {
          "status": 1,
          "other_platform_oauth_client": []
        },
        "ads_service": {
          "status": 2
        }
      }
    }
  ],
  "configuration_version": "1"
}